<?xml version="1.0" encoding="utf-8"?>
<!-- Generator: Adobe Illustrator 23.0.6, SVG Export Plug-In . SVG Version: 6.00 Build 0)  -->
<svg version="1.1" id="Capa_1" xmlns="http://www.w3.org/2000/svg" xmlns:xlink="http://www.w3.org/1999/xlink" x="0px" y="0px"
	 viewBox="0 0 512 512" style="enable-background:new 0 0 512 512;" xml:space="preserve">
<style type="text/css">
	.st0{fill:#EF3F42;}
</style>
<g>
	<path class="st0" d="M482.4,441.1l3.6-5.6c17-26.6,26-57.4,26-89.1c0-86.5-66.6-157.7-151.3-165c-7.6,95.5-84,171.8-179.4,179.4
		c7.3,84.6,78.5,151.3,165,151.3c31.7,0,62.5-9,89.1-26l5.6-3.6l57.2,15.8L482.4,441.1z"/>
	<path class="st0" d="M122.5,230l43.1-43.1l43.1,43.1l21.2-21.2l-43.1-43.1l43.1-43.1l-21.2-21.2l-43.1,43.1l-43.1-43.1l-21.2,21.2
		l43.1,43.1l-43.1,43.1L122.5,230z"/>
	<path class="st0" d="M70.9,301.8l5.6,3.6c26.6,17,57.4,26,89.1,26c91.3,0,165.7-74.3,165.7-165.7S257,0,165.7,0S0,74.3,0,165.7
		c0,31.7,9,62.5,26,89.1l3.6,5.6l-15.8,57.2L70.9,301.8z M58.9,122.5l63.6-63.6l43.1,43.1l43.1-43.1l63.6,63.6l-43.1,43.1l43.1,43.1
		l-63.6,63.6l-43.1-43.1l-43.1,43.1l-63.6-63.6l43.1-43.1L58.9,122.5z"/>
</g>
</svg>
