<?xml version="1.0" encoding="utf-8"?>
<!-- Generator: Adobe Illustrator 23.0.6, SVG Export Plug-In . SVG Version: 6.00 Build 0)  -->
<svg version="1.1" id="_x33_0" xmlns="http://www.w3.org/2000/svg" xmlns:xlink="http://www.w3.org/1999/xlink" x="0px" y="0px"
	 viewBox="0 0 512 512" style="enable-background:new 0 0 512 512;" xml:space="preserve">
<style type="text/css">
	.st0{fill:#EF3F42;}
	.st1{fill:#FFFFFF;}
</style>
<circle class="st0" cx="259.5" cy="244.3" r="224.3"/>
<g>
	<path class="st1" d="M290.1,213.7v4.4c0,16.9-13.7,30.6-30.6,30.6c-16.9,0-30.6-13.7-30.6-30.6v-8.7c0-12.1,9.8-21.9,21.9-21.9
		c12.1,0,21.9,9.8,21.9,21.9v8.7c0,2.4-2,4.4-4.4,4.4c-2.4,0-4.4-2-4.4-4.4v-8.7c0-7.2-5.9-13.1-13.1-13.1
		c-7.2,0-13.1,5.9-13.1,13.1v8.7c0,7.2,5.9,13.1,13.1,13.1c3.4,0,6.4-1.3,8.7-3.4c2.3,2.1,5.4,3.4,8.7,3.4c7.2,0,13.1-5.9,13.1-13.1
		v-8.7c0-16.9-13.7-30.6-30.6-30.6s-30.6,13.7-30.6,30.6v8.7c0,21.7,17.7,39.4,39.4,39.4s39.4-17.7,39.4-39.4v-4.4H290.1z
		 M250.7,222.4c-2.4,0-4.4-2-4.4-4.4v-8.7c0-2.4,2-4.4,4.4-4.4s4.4,2,4.4,4.4v8.7C255.1,220.5,253.1,222.4,250.7,222.4z"/>
	<path class="st1" d="M220.1,126.2h43.7v8.7h-43.7V126.2z"/>
	<path class="st1" d="M272.6,126.2h8.7v8.7h-8.7V126.2z"/>
	<path class="st1" d="M290.1,126.2h8.7v8.7h-8.7V126.2z"/>
	<path class="st1" d="M259.5,327.4c-7.2,0-13.1,5.9-13.1,13.1s5.9,13.1,13.1,13.1c7.2,0,13.1-5.9,13.1-13.1S266.7,327.4,259.5,327.4
		z M259.5,344.9c-2.4,0-4.4-2-4.4-4.4s2-4.4,4.4-4.4s4.4,2,4.4,4.4S261.9,344.9,259.5,344.9z"/>
	<path class="st1" d="M224.5,327.4c-7.2,0-13.1,5.9-13.1,13.1s5.9,13.1,13.1,13.1s13.1-5.9,13.1-13.1S231.7,327.4,224.5,327.4z
		 M224.5,344.9c-2.4,0-4.4-2-4.4-4.4s2-4.4,4.4-4.4s4.4,2,4.4,4.4S226.9,344.9,224.5,344.9z"/>
	<path class="st1" d="M298.8,327.4c-7.2,0-13.1,5.9-13.1,13.1s5.9,13.1,13.1,13.1s13.1-5.9,13.1-13.1S306.1,327.4,298.8,327.4z
		 M298.8,344.9c-2.4,0-4.4-2-4.4-4.4s2-4.4,4.4-4.4c2.4,0,4.4,2,4.4,4.4S301.3,344.9,298.8,344.9z"/>
	<path class="st1" d="M333.8,211.7v-81.1c0-12.1-9.8-21.9-21.9-21.9H207c-12.1,0-21.9,9.8-21.9,21.9v81.1l-32,28
		c-1.9,1.7-3,4.1-3,6.6v111.8c0,12.1,9.8,21.9,21.9,21.9h175c12.1,0,21.9-9.8,21.9-21.9V246.3c0-2.5-1.1-4.9-3-6.6L333.8,211.7z
		 M359.4,362l-50.2-64.5l50.9-43.6v104.2C360.1,359.4,359.8,360.7,359.4,362z M159.5,362c-0.4-1.2-0.7-2.5-0.7-3.9V253.8l50.9,43.6
		L159.5,362z M217.3,292.4l-23.5-20.1V152.4h131.2v119.9l-23.5,20.1H217.3z M357.8,244.3l-23.9,20.5v-41.5L357.8,244.3z M207,117.4
		h105c7.2,0,13.1,5.9,13.1,13.1v13.1H193.8v-13.1C193.8,123.3,199.7,117.4,207,117.4z M185.1,264.8l-23.9-20.5l23.9-20.9V264.8z
		 M172,371.2c-2.6,0-4.9-0.8-7-2l52.8-68h83.2l52.9,68c-2,1.3-4.4,2-7,2H172z"/>
	<path class="st1" d="M158.9,143.7h8.7v35h-8.7V143.7z"/>
	<path class="st1" d="M141.4,126.2h8.7v70h-8.7V126.2z"/>
	<path class="st1" d="M123.9,108.7h8.7v105h-8.7V108.7z"/>
	<path class="st1" d="M351.3,143.7h8.7v35h-8.7V143.7z"/>
	<path class="st1" d="M368.8,126.2h8.7v70h-8.7V126.2z"/>
	<path class="st1" d="M386.3,108.7h8.7v105h-8.7V108.7z"/>
</g>
</svg>
